module gitlab.com/hammerabi/recime

go 1.13

require (
	github.com/gin-contrib/cors v1.3.1
	github.com/gin-gonic/gin v1.7.1
	github.com/lib/pq v1.10.1
	gorm.io/driver/postgres v1.0.8
	gorm.io/gorm v1.21.9
)
